type,feature1,feature2,spec1,spec2,artist_id
official,nb_album,nb_fan,14,409776,5947658
official,nb_album,nb_fan,9,266039,1412564
official,nb_album,nb_fan,50,2417925,288166
official,nb_album,nb_fan,20,418772,1191615
official,nb_album,nb_fan,18,51602,13014
official,nb_album,nb_fan,60,2969013,64333
official,nb_album,nb_fan,30,136458,7983
official,nb_album,nb_fan,4,520770,5062414
official,nb_album,nb_fan,37,799557,368
official,nb_album,nb_fan,8,239368,633
official,nb_album,nb_fan,17,453939,13204
official,nb_album,nb_fan,44,2828729,705
official,nb_album,nb_fan,51,3551075,412
official,nb_album,nb_fan,26,4659695,144227
official,nb_album,nb_fan,26,2106432,1424821
official,nb_album,nb_fan,45,6456896,259
duplicate,nb_album,nb_fan,7,150,525643
duplicate,nb_album,nb_fan,5,100,198
duplicate,nb_album,nb_fan,4,200,1424820
duplicate,nb_album,nb_fan,1,344,12124
duplicate,nb_album,nb_fan,2,450,124124
